{
  "result": true,
  "data": [
    {
      "id": 13778,
      "title": "Тайны ФИФА",
      "kp_id": "5144379",
      "imdb_id": "tt22872838",
      "world_art_id": null,
      "type": "serial",
      "add": "2022-11-09 14:28:16",
      "orig_title": "FIFA Uncovered",
      "year": "2022-11-09",
      "translations": [
        "Любительский (многоголосый закадровый) (Ultradox)",
        "Любительский (многоголосый закадровый) (ColdFilm)"
      ],
      "seasons_count": 1,
      "episodes_count": 4,
      "episodes": 4,
      "update": "2022-11-10 13:33:52",
      "iframe_src": "//8886534688564.svetacdn.in/wxB53DyCmVwt/tv-series/13778"
    },
    {
      "id": 269,
      "title": "За облаками",
      "kp_id": "247926",
      "imdb_id": "tt0381348",
      "world_art_id": "2165",
      "type": "movie",
      "add": "2022-11-07 20:17:51",
      "orig_title": "雲のむこう、約束の場所",
      "year": "2004-11-20",
      "translations": [
        "Полное дублирование (XL Media)"
      ],
      "quality": "bd",
      "translation": "Полное дублирование (XL Media)",
      "update": "2022-11-08 13:39:50",
      "iframe_src": "//8886534688564.svetacdn.in/wxB53DyCmVwt/anime/269"
    },
    {
      "id": 13768,
      "title": "Секрет в тёмной каморке",
      "kp_id": "5100626",
      "imdb_id": null,
      "world_art_id": null,
      "type": "serial",
      "add": "2022-11-07 18:20:58",
      "orig_title": "An ge li de mi mi",
      "year": "2021-08-10",
      "translations": [
        "Любительский (двухголосый закадровый) (W³: voices)"
      ],
      "seasons_count": 1,
      "episodes_count": 7,
      "episodes": 7,
      "update": "2022-11-10 13:41:00",
      "iframe_src": "//8886534688564.svetacdn.in/wxB53DyCmVwt/tv-series/13768"
    },
    {
      "id": 1390,
      "title": "Война горничных Акибы",
      "kp_id": "5095207",
      "imdb_id": "tt21929358",
      "world_art_id": "11379",
      "type": "serial",
      "add": "2022-11-02 16:52:20",
      "orig_title": "アキバ冥途戦争",
      "year": "2022-10-07",
      "translations": [
        "Любительский (многоголосый закадровый) (AniDUB)"
      ],
      "seasons_count": 1,
      "episodes_count": 5,
      "episodes": 5,
      "update": "2022-11-09 06:00:17",
      "iframe_src": "//8886534688564.svetacdn.in/wxB53DyCmVwt/anime-tv-series/1390"
    },
    {
      "id": 1388,
      "title": "Принцесса-библиофил",
      "kp_id": "4977651",
      "imdb_id": "tt17501150",
      "world_art_id": "11229",
      "type": "serial",
      "add": "2022-11-02 16:44:25",
      "orig_title": "虫かぶり姫",
      "year": "2022-10-06",
      "translations": [
        "Любительский (многоголосый закадровый) (AniDUB)"
      ],
      "seasons_count": 1,
      "episodes_count": 5,
      "episodes": 5,
      "update": "2022-11-09 05:59:47",
      "iframe_src": "//8886534688564.svetacdn.in/wxB53DyCmVwt/anime-tv-series/1388"
    },
    {
      "id": 1379,
      "title": "Магазинчик начинающего алхимика",
      "kp_id": "5047586",
      "imdb_id": "tt19406880",
      "world_art_id": "11305",
      "type": "serial",
      "add": "2022-11-01 21:34:38",
      "orig_title": "新米錬金術師の店舗経営",
      "year": "2022-10-03",
      "translations": [
        "Любительский (многоголосый закадровый) (AniDUB)"
      ],
      "seasons_count": 1,
      "episodes_count": 6,
      "episodes": 6,
      "update": "2022-11-09 06:01:05",
      "iframe_src": "//8886534688564.svetacdn.in/wxB53DyCmVwt/anime-tv-series/1379"
    },
    {
      "id": 62260,
      "title": "Уэнделл и Уайлд",
      "kp_id": "1115174",
      "imdb_id": "tt5181830",
      "world_art_id": null,
      "type": "movie",
      "add": "2022-10-28 15:47:34",
      "orig_title": "Wendell and Wild",
      "year": "2022-09-11",
      "translations": [
        "Любительский (двухголосый закадровый) (OnisFilms)",
        "Любительский (многоголосый закадровый) (@MUZOBOZ@)",
        "Профессиональный (двухголосый закадровый) (Pazl Voice)",
        "Профессиональный (многоголосый закадровый) (TVShows)"
      ],
      "quality": "webdl",
      "translation": "Любительский (двухголосый закадровый) (OnisFilms)",
      "update": "2022-11-10 12:54:57",
      "iframe_src": "//8886534688564.svetacdn.in/wxB53DyCmVwt/movie/62260"
    },
    {
      "id": 1282,
      "title": "За едой",
      "kp_id": null,
      "imdb_id": null,
      "world_art_id": null,
      "type": "serial",
      "add": "2022-10-26 07:30:45",
      "orig_title": "За едой",
      "year": "2022-10-25",
      "translations": [
        "Оригинальная дорожка"
      ],
      "seasons_count": 1,
      "episodes_count": 2,
      "episodes": 2,
      "update": "2022-11-10 13:46:49",
      "iframe_src": "//8886534688564.svetacdn.in/wxB53DyCmVwt/show-tv-series/1282"
    },
    {
      "id": 268,
      "title": "Мастера меча онлайн: Прогрессив. Ария в беззвёздной ночи",
      "kp_id": "4511922",
      "imdb_id": "tt13424422",
      "world_art_id": "10613",
      "type": "movie",
      "add": "2022-10-06 19:56:32",
      "orig_title": "劇場版 ソードアート・オンライン プログレッシブ 星なき夜のアリア",
      "year": "2021-10-30",
      "translations": [
        "Любительский (многоголосый закадровый) (AniLibria.TV)"
      ],
      "quality": "bd",
      "translation": "Любительский (многоголосый закадровый) (AniLibria.TV)",
      "update": "2022-10-18 09:08:04",
      "iframe_src": "//8886534688564.svetacdn.in/wxB53DyCmVwt/anime/268"
    },
    {
      "id": 267,
      "title": "Планетарианка: Снежный шар",
      "kp_id": "4528239",
      "imdb_id": "tt15199516",
      "world_art_id": "10301",
      "type": "movie",
      "add": "2022-10-06 19:51:56",
      "orig_title": "planetarian 雪圏球(スノーグローブ)",
      "year": "2021-01-20",
      "translations": [
        "Любительский (многоголосый закадровый) (AniLibria.TV)"
      ],
      "quality": "bd",
      "translation": "Любительский (многоголосый закадровый) (AniLibria.TV)",
      "update": "2022-10-18 09:07:40",
      "iframe_src": "//8886534688564.svetacdn.in/wxB53DyCmVwt/anime/267"
    },
    {
      "id": 1272,
      "title": "Непыльный вопрос",
      "kp_id": null,
      "imdb_id": null,
      "world_art_id": null,
      "type": "serial",
      "add": "2022-10-04 06:42:13",
      "orig_title": "Непыльный вопрос",
      "year": "2022-10-03",
      "translations": [
        "Оригинальная дорожка"
      ],
      "seasons_count": 1,
      "episodes_count": 7,
      "episodes": 7,
      "update": "2022-11-08 12:35:58",
      "iframe_src": "//8886534688564.svetacdn.in/wxB53DyCmVwt/show-tv-series/1272"
    },
    {
      "id": 258,
      "title": "Плавучий дом",
      "kp_id": "4640396",
      "imdb_id": "tt15494038",
      "world_art_id": "11062",
      "type": "movie",
      "add": "2022-09-22 20:41:26",
      "orig_title": "雨を告げる漂流団地",
      "year": "2022-09-09",
      "translations": [
        "Любительский (двухголосый закадровый) (OnisFilms)",
        "Профессиональный (многоголосый закадровый) (TVShows)",
        "Любительский (двухголосый закадровый) (Amazing Dubbing)",
        "Любительский (многоголосый закадровый) (AniLibria.TV)"
      ],
      "quality": "webdl",
      "translation": "Любительский (двухголосый закадровый) (OnisFilms)",
      "update": "2022-10-18 09:07:17",
      "iframe_src": "//8886534688564.svetacdn.in/wxB53DyCmVwt/anime/258"
    },
    {
      "id": 57945,
      "title": "Боль",
      "kp_id": "382107",
      "imdb_id": "tt1046936",
      "world_art_id": null,
      "type": "movie",
      "add": "2022-04-14 15:41:30",
      "orig_title": "Hurt",
      "year": "2009-11-10",
      "translations": [
        "[EN] Original (English)",
        "Любительский (двухголосый закадровый) (Деревянная парочка | Сладкая парочка)"
      ],
      "quality": "webdl",
      "translation": "[EN] Original (English)",
      "update": "2022-11-10 12:57:10",
      "iframe_src": "//8886534688564.svetacdn.in/wxB53DyCmVwt/movie/57945"
    },
    {
      "id": 1069,
      "title": "Звёзды в Африке",
      "kp_id": "4761950",
      "imdb_id": null,
      "world_art_id": null,
      "type": "serial",
      "add": "2021-09-19 12:40:54",
      "orig_title": "Звёзды в Африке",
      "year": "2021-09-19",
      "translations": [
        "Оригинальная дорожка"
      ],
      "seasons_count": 3,
      "episodes_count": 38,
      "episodes": 9,
      "update": "2022-11-09 15:26:16",
      "iframe_src": "//8886534688564.svetacdn.in/wxB53DyCmVwt/show-tv-series/1069"
    },
    {
      "id": 873,
      "title": "Битва шефов",
      "kp_id": null,
      "imdb_id": null,
      "world_art_id": null,
      "type": "serial",
      "add": "2020-11-25 04:07:02",
      "orig_title": "Битва шефов",
      "year": "2020-11-24",
      "translations": [
        "Оригинальная дорожка"
      ],
      "seasons_count": 2,
      "episodes_count": 23,
      "episodes": 17,
      "update": "2022-11-10 13:32:35",
      "iframe_src": "//8886534688564.svetacdn.in/wxB53DyCmVwt/show-tv-series/873"
    },
    {
      "id": 8068,
      "title": "Монахиня-воин",
      "kp_id": "1245502",
      "imdb_id": "tt9059350",
      "world_art_id": null,
      "type": "serial",
      "add": "2020-07-02 09:56:57",
      "orig_title": "Warrior Nun",
      "year": "2020-07-02",
      "translations": [
        "Любительский (многоголосый закадровый) (ColdFilm)",
        "Любительский (многоголосый закадровый) (Octopus)",
        "Профессиональный (многоголосый закадровый) (HDrezka Studio)",
        "Профессиональный (двухголосый закадровый) (IdeaFilm)",
        "Профессиональный (многоголосый закадровый) (LostFilm)",
        "Профессиональный (многоголосый закадровый) (NewStudio)",
        "Любительский (многоголосый закадровый) (Omskbird Records)"
      ],
      "seasons_count": 2,
      "episodes_count": 11,
      "episodes": 1,
      "update": "2022-11-10 13:33:12",
      "iframe_src": "//8886534688564.svetacdn.in/wxB53DyCmVwt/tv-series/8068"
    },
    {
      "id": 32389,
      "title": "Не буди в ней зверя",
      "kp_id": "1109009",
      "imdb_id": "tt6624144",
      "world_art_id": null,
      "type": "movie",
      "add": "2019-10-26 17:45:31",
      "orig_title": "A Good Woman Is Hard to Find",
      "year": "2019-07-21",
      "translations": [
        "Любительский (многоголосый закадровый) (Синема УС)",
        "Профессиональный (многоголосый закадровый) (Позитив)"
      ],
      "quality": "webdl",
      "translation": "Любительский (многоголосый закадровый) (Синема УС)",
      "update": "2022-11-10 13:00:01",
      "iframe_src": "//8886534688564.svetacdn.in/wxB53DyCmVwt/movie/32389"
    },
    {
      "id": 25397,
      "title": "Только сильнейшие",
      "kp_id": "18114",
      "imdb_id": "tt0107750",
      "world_art_id": null,
      "type": "movie",
      "add": "2019-04-26 16:04:37",
      "orig_title": "Only the Strong",
      "year": "1993-08-27",
      "translations": [
        "Профессиональный (двухголосый закадровый)",
        "Профессиональный (двухголосый закадровый) (Twister)"
      ],
      "quality": "hdtv",
      "translation": "Профессиональный (двухголосый закадровый)",
      "update": "2022-11-10 12:56:29",
      "iframe_src": "//8886534688564.svetacdn.in/wxB53DyCmVwt/movie/25397"
    },
    {
      "id": 118,
      "title": "Флотская коллекция",
      "kp_id": "1101570",
      "imdb_id": "tt3639872",
      "world_art_id": "2019",
      "type": "serial",
      "add": "2018-03-15 12:45:21",
      "orig_title": "艦これ / 艦隊これくしょん -艦これ-",
      "year": "2015-01-08",
      "translations": [
        "Любительский (двухголосый закадровый) (AniDUB)",
        "Любительский (многоголосый закадровый) (AniDUB)"
      ],
      "seasons_count": 2,
      "episodes_count": 13,
      "episodes": 1,
      "update": "2022-11-09 06:00:02",
      "iframe_src": "//8886534688564.svetacdn.in/wxB53DyCmVwt/anime-tv-series/118"
    },
    {
      "id": 1942,
      "title": "Чикаго в Огне",
      "kp_id": "669668",
      "imdb_id": "tt2261391",
      "world_art_id": null,
      "type": "serial",
      "add": "2018-01-12 07:39:01",
      "orig_title": "Chicago Fire",
      "year": "2012-10-10",
      "translations": [
        "Любительский (одноголосый закадровый) (Шадинский Денис)",
        "Профессиональный (многоголосый закадровый) (SDI Media | Iyuno-SDI Group Russia)",
        "Профессиональный (многоголосый закадровый) (Universal Russia)",
        "Профессиональный (многоголосый закадровый) (TVShows)",
        "Любительский (многоголосый закадровый) (Octopus)",
        "Профессиональный (многоголосый закадровый)",
        "Любительский (многоголосый закадровый) (ColdFilm)",
        "Любительский (многоголосый закадровый) (Ultradox)",
        "[EN] Original (English)",
        "Профессиональный (многоголосый закадровый) (BaibaKo)",
        "Профессиональный (многоголосый закадровый) (RuDub)"
      ],
      "seasons_count": 11,
      "episodes_count": 224,
      "episodes": 7,
      "update": "2022-11-10 13:33:34",
      "iframe_src": "//8886534688564.svetacdn.in/wxB53DyCmVwt/tv-series/1942"
    }
  ],
  "current_page": 1,
  "first_page_url": "https://videocdn.tv/api/short?pretty_print=1&limit=20&page=1",
  "from": 1,
  "last_page": 3882,
  "last_page_url": "https://videocdn.tv/api/short?pretty_print=1&limit=20&page=3882",
  "next_page_url": "https://videocdn.tv/api/short?pretty_print=1&limit=20&page=2",
  "path": "https://videocdn.tv/api/short",
  "per_page": 20,
  "prev_page_url": null,
  "to": 20,
  "total": 77637
}